^C:\USERS\ADMIN\SOURCE\REPOS\DUBLLE_THREE\DUBLLE_THREE\PCH.CPP
/c /Zi /nologo /W3 /WX- /diagnostics:classic /sdl /O2 /Oi /Oy- /GL /D WIN32 /D NDEBUG /D _CONSOLE /D _UNICODE /D UNICODE /Gm- /EHsc /MD /GS /Gy /fp:precise /permissive- /Zc:wchar_t /Zc:forScope /Zc:inline /Yc"pch.h" /Fp"RELEASE\DUBLLE_THREE.PCH" /Fo"RELEASE\\" /Fd"RELEASE\VC141.PDB" /Gd /TP /analyze- /FC C:\USERS\ADMIN\SOURCE\REPOS\DUBLLE_THREE\DUBLLE_THREE\PCH.CPP
^C:\USERS\ADMIN\SOURCE\REPOS\DUBLLE_THREE\DUBLLE_THREE\DUBLLE_THREE.CPP
/c /Zi /nologo /W3 /WX- /diagnostics:classic /sdl /O2 /Oi /Oy- /GL /D WIN32 /D NDEBUG /D _CONSOLE /D _UNICODE /D UNICODE /Gm- /EHsc /MD /GS /Gy /fp:precise /permissive- /Zc:wchar_t /Zc:forScope /Zc:inline /Yu"pch.h" /Fp"RELEASE\DUBLLE_THREE.PCH" /Fo"RELEASE\\" /Fd"RELEASE\VC141.PDB" /Gd /TP /analyze- /FC C:\USERS\ADMIN\SOURCE\REPOS\DUBLLE_THREE\DUBLLE_THREE\DUBLLE_THREE.CPP
