^C:\USERS\ADMIN\SOURCE\REPOS\DUBLLE_THREE\DUBLLE_THREE\RELEASE\DUBLLE_THREE.OBJ|C:\USERS\ADMIN\SOURCE\REPOS\DUBLLE_THREE\DUBLLE_THREE\RELEASE\PCH.OBJ
C:\USERS\ADMIN\SOURCE\REPOS\DUBLLE_THREE\RELEASE\DUBLLE_THREE.EXE
C:\USERS\ADMIN\SOURCE\REPOS\DUBLLE_THREE\RELEASE\DUBLLE_THREE.PDB
