^C:\USERS\ADMIN\SOURCE\REPOS\FOOTBOLL_TABLE\FOOTBOLL_TABLE\PCH.CPP
/c /ZI /JMC /nologo /W3 /WX- /diagnostics:classic /sdl /Od /Oy- /D WIN32 /D _DEBUG /D _CONSOLE /D _UNICODE /D UNICODE /Gm- /EHsc /RTC1 /MDd /GS /fp:precise /permissive- /Zc:wchar_t /Zc:forScope /Zc:inline /Yc"pch.h" /Fp"DEBUG\FOOTBOLL_TABLE.PCH" /Fo"DEBUG\\" /Fd"DEBUG\VC141.PDB" /Gd /TP /analyze- /FC C:\USERS\ADMIN\SOURCE\REPOS\FOOTBOLL_TABLE\FOOTBOLL_TABLE\PCH.CPP
^C:\USERS\ADMIN\SOURCE\REPOS\FOOTBOLL_TABLE\FOOTBOLL_TABLE\FOOTBOLL_TABLE.CPP
/c /ZI /JMC /nologo /W3 /WX- /diagnostics:classic /sdl /Od /Oy- /D WIN32 /D _DEBUG /D _CONSOLE /D _UNICODE /D UNICODE /Gm- /EHsc /RTC1 /MDd /GS /fp:precise /permissive- /Zc:wchar_t /Zc:forScope /Zc:inline /Yu"pch.h" /Fp"DEBUG\FOOTBOLL_TABLE.PCH" /Fo"DEBUG\\" /Fd"DEBUG\VC141.PDB" /Gd /TP /analyze- /FC C:\USERS\ADMIN\SOURCE\REPOS\FOOTBOLL_TABLE\FOOTBOLL_TABLE\FOOTBOLL_TABLE.CPP
