^C:\USERS\ADMIN\SOURCE\REPOS\MOON_DATA\MOON_DATA\PCH.CPP
C:\USERS\ADMIN\SOURCE\REPOS\MOON_DATA\MOON_DATA\DEBUG\MOON_DATA.PCH
C:\USERS\ADMIN\SOURCE\REPOS\MOON_DATA\MOON_DATA\DEBUG\VC141.PDB
C:\USERS\ADMIN\SOURCE\REPOS\MOON_DATA\MOON_DATA\DEBUG\VC141.IDB
C:\USERS\ADMIN\SOURCE\REPOS\MOON_DATA\MOON_DATA\DEBUG\PCH.OBJ
^C:\USERS\ADMIN\SOURCE\REPOS\MOON_DATA\MOON_DATA\MOON_DATA.CPP
C:\USERS\ADMIN\SOURCE\REPOS\MOON_DATA\MOON_DATA\DEBUG\VC141.PDB
C:\USERS\ADMIN\SOURCE\REPOS\MOON_DATA\MOON_DATA\DEBUG\VC141.IDB
C:\USERS\ADMIN\SOURCE\REPOS\MOON_DATA\MOON_DATA\DEBUG\MOON_DATA.OBJ
