^C:\USERS\ADMIN\SOURCE\REPOS\SUM_LONG_NUM\SUM_LONG_NUM\PCH.CPP
C:\USERS\ADMIN\SOURCE\REPOS\SUM_LONG_NUM\SUM_LONG_NUM\DEBUG\SUM_LONG_NUM.PCH
C:\USERS\ADMIN\SOURCE\REPOS\SUM_LONG_NUM\SUM_LONG_NUM\DEBUG\VC141.PDB
C:\USERS\ADMIN\SOURCE\REPOS\SUM_LONG_NUM\SUM_LONG_NUM\DEBUG\VC141.IDB
C:\USERS\ADMIN\SOURCE\REPOS\SUM_LONG_NUM\SUM_LONG_NUM\DEBUG\PCH.OBJ
^C:\USERS\ADMIN\SOURCE\REPOS\SUM_LONG_NUM\SUM_LONG_NUM\SUM_LONG_NUM.CPP
C:\USERS\ADMIN\SOURCE\REPOS\SUM_LONG_NUM\SUM_LONG_NUM\DEBUG\VC141.PDB
C:\USERS\ADMIN\SOURCE\REPOS\SUM_LONG_NUM\SUM_LONG_NUM\DEBUG\VC141.IDB
C:\USERS\ADMIN\SOURCE\REPOS\SUM_LONG_NUM\SUM_LONG_NUM\DEBUG\SUM_LONG_NUM.OBJ
